Project1
…
  return(data)
}

Test 1: the defaults:

query_pums(
  key = census_key
)

Warning: The `x` argument of `as_tibble.matrix()` must have unique column names if
`.name_repair` is omitted as of tibble 2.0.0.
ℹ Using compatibility `.name_repair`.

# A tibble: 109,230 × 4
    AGEP PWGTP SEX    state
   <dbl> <dbl> <fct>  <chr>
 1    69   104 Female 37   
 2    76    22 Female 37   
 3    49   287 Male   37   
 4    47   290 Female 37   
 5    15   314 Female 37   
 6     9   384 Male   37   
 7    61   210 Male   37   
 8    69    78 Female 37   
 9    48   121 Female 37   
10    70   122 Male   37   
# ℹ 109,220 more rows

Test 2: Different year and variables:

query_pums(
  year = 2018,
  numeric_vars = c("AGEP", "GRPIP"),
  categorical_vars = c("SEX", "SCHL"),
  key = census_key
)

# A tibble: 102,523 × 6
    AGEP GRPIP PWGTP SEX    SCHL  state
   <dbl> <dbl> <dbl> <fct>  <fct> <chr>
 1    37     0    11 Male   17    37   
 2    90     0    21 Female 10    37   
 3    49     0     4 Male   16    37   
 4    20     0    74 Male   18    37   
 5    46     0     3 Male   17    37   
 6    24     0    58 Male   16    37   
 7    44     0    66 Male   14    37   
 8    43     0    84 Male   19    37   
 9    20     0    77 Female 19    37   
10    45     0    63 Male   16    37   
# ℹ 102,513 more rows

Test 3: PWGTP automatically included:

query_pums(
  numeric_vars = c("AGEP"),
  key = census_key
)

# A tibble: 109,230 × 4
    AGEP PWGTP SEX    state
   <dbl> <dbl> <fct>  <chr>
 1    80    45 Male   37   
 2    60     7 Male   37   
 3    18    64 Male   37   
 4    18    56 Male   37   
 5    87    50 Female 37   
 6    18    56 Male   37   
 7    39    36 Male   37   
 8    40    38 Male   37   
 9    21    38 Male   37   
10    19     8 Female 37   
# ℹ 109,220 more rows
…
    }
  )

  bind_rows(results)

}

Now, we make a call in order to test the multi-year function:

query_pums_years(
  years = c(2018, 2019, 2021, 2022),
  key = census_key
)

# A tibble: 419,606 × 5
    AGEP PWGTP SEX    state  year
   <dbl> <dbl> <fct>  <chr> <dbl>
 1    37    11 Male   37     2018
 2    90    21 Female 37     2018
 3    49     4 Male   37     2018
 4    20    74 Male   37     2018
 5    46     3 Male   37     2018
 6    24    58 Male   37     2018
 7    44    66 Male   37     2018
 8    43    84 Male   37     2018
 9    20    77 Female 37     2018
10    45    63 Male   37     2018
# ℹ 419,596 more rows
…
